module github.com/GoogleCloudPlatform/microservices-demo/src/checkoutservice

go 1.19

require (
	cloud.google.com/go/profiler v0.4.0
	github.com/golang/protobuf v1.5.3
	github.com/google/uuid v1.5.0
	github.com/pkg/errors v0.9.1
	github.com/sirupsen/logrus v1.9.3
	go.opentelemetry.io/contrib/instrumentation/google.golang.org/grpc/otelgrpc v0.46.1
	go.opentelemetry.io/otel v1.21.0
	go.opentelemetry.io/otel/exporters/otlp/otlptrace/otlptracegrpc v1.21.0
	go.opentelemetry.io/otel/sdk v1.21.0
	golang.org/x/net v0.19.0
	google.golang.org/grpc v1.60.1
)


require (
	cloud.google.com/go v0.110.8 // indirect
	cloud.google.com/go/compute v1.23.0 // indirect
	cloud.google.com/go/compute/metadata v0.2.3 // indirect
	github.com/cenkalti/backoff/v4 v4.2.1 // indirect
	github.com/go-logr/logr v1.3.0 // indirect
	github.com/go-logr/stdr v1.2.2 // indirect
	github.com/golang/groupcache v0.0.0-20210331224755-41bb18bfe9da // indirect
	github.com/google/pprof v0.0.0-20230602150820-91b7bce49751 // indirect
	github.com/google/s2a-go v0.1.4 // indirect
	github.com/googleapis/enterprise-certificate-proxy v0.2.4 // indirect
	github.com/googleapis/gax-go/v2 v2.12.0 // indirect
	github.com/grpc-ecosystem/grpc-gateway/v2 v2.16.0 // indirect
	go.opencensus.io v0.24.0 // indirect
	go.opentelemetry.io/otel/exporters/otlp/otlptrace v1.21.0 // indirect
	go.opentelemetry.io/otel/metric v1.21.0 // indirect
	go.opentelemetry.io/otel/trace v1.21.0 // indirect
	go.opentelemetry.io/proto/otlp v1.0.0 // indirect
	golang.org/x/crypto v0.17.0 // indirect
	golang.org/x/oauth2 v0.13.0 // indirect
	golang.org/x/sync v0.4.0 // indirect
	golang.org/x/sys v0.15.0 // indirect
	golang.org/x/text v0.14.0 // indirect
	google.golang.org/api v0.128.0 // indirect
	google.golang.org/appengine v1.6.8 // indirect
	google.golang.org/genproto v0.0.0-20231002182017-d307bd883b97 // indirect
	google.golang.org/genproto/googleapis/api v0.0.0-20231002182017-d307bd883b97 // indirect
	google.golang.org/genproto/googleapis/rpc v0.0.0-20231002182017-d307bd883b97 // indirect
	google.golang.org/protobuf v1.31.0 // indirect
)
